<?xml version="1.0" encoding="utf-8"?>
<!-- Generator: Adobe Illustrator 16.0.0, SVG Export Plug-In . SVG Version: 6.00 Build 0)  -->
<!DOCTYPE svg PUBLIC "-//W3C//DTD SVG 1.1//EN" "http://www.w3.org/Graphics/SVG/1.1/DTD/svg11.dtd">
<svg version="1.1" id="Layer_1" xmlns="http://www.w3.org/2000/svg" xmlns:xlink="http://www.w3.org/1999/xlink" x="0px" y="0px"
	 width="89.546px" height="89.546px" viewBox="0 0 89.546 89.546" enable-background="new 0 0 89.546 89.546" xml:space="preserve">
<g>
	<path fill="#58595B" d="M21.087,27.32c0,17.071,9.384,32.615,24.491,40.564C45.724,67.962,45.883,68,46.043,68
		s0.32-0.038,0.466-0.115C61.616,59.935,71,44.391,71,27.32V18H21.087V27.32z M32.526,32.842C32.594,32.638,32.785,32.5,33,32.5
		h9.643l2.927-8.531c0.069-0.203,0.26-0.338,0.473-0.338c0.188-0.025,0.406,0.138,0.474,0.342L49.36,32.5H58
		c0.21,0,0.396,0.13,0.469,0.327c0.073,0.196,0.016,0.417-0.144,0.552l-6.729,5.767l3.867,9.668
		c0.082,0.203,0.021,0.436-0.148,0.574c-0.171,0.138-0.41,0.148-0.592,0.027l-8.682-5.772l-8.767,5.774
		C37.191,49.473,37.096,49.5,37,49.5c-0.112,0-0.225-0.038-0.316-0.113c-0.169-0.138-0.229-0.369-0.148-0.572l3.858-9.645L32.7,33.4
		C32.528,33.271,32.458,33.046,32.526,32.842z"/>
	<path fill="#58595B" d="M70,8H22.087c-0.552,0-1,0.448-1,1v7H71V9C71,8.448,70.552,8,70,8z"/>
</g>
</svg>
