<?xml version="1.0" encoding="utf-8"?>
<!-- Generator: Adobe Illustrator 16.0.0, SVG Export Plug-In . SVG Version: 6.00 Build 0)  -->
<!DOCTYPE svg PUBLIC "-//W3C//DTD SVG 1.1//EN" "http://www.w3.org/Graphics/SVG/1.1/DTD/svg11.dtd">
<svg version="1.1" id="Layer_1" xmlns="http://www.w3.org/2000/svg" xmlns:xlink="http://www.w3.org/1999/xlink" x="0px" y="0px"
	 width="89.546px" height="89.546px" viewBox="0 0 89.546 89.546" enable-background="new 0 0 89.546 89.546" xml:space="preserve">
<path fill="#58595B" d="M75,36c0-2.664-2.337-5-5-5H51.236C51.784,28.354,53,22.032,53,18c0-4.752-2.542-6.88-5.061-6.88
	C45.693,11.12,44,12.788,44,15c0,9.059-8.475,20-19,20h-7c-0.552,0-1,0.448-1,1v22c0,0.553,0.448,1,1,1
	c11.663,0,15.969,1.365,19.429,2.463C40.029,62.287,42.276,63,46.608,63H63c1.436,0,4-1.337,4-4c0-1.242-0.294-2.285-0.845-3.094
	C68.585,55.493,70,53.725,70,51c0-0.829-0.255-1.57-0.714-2.182C71.373,48.218,73,46.223,73,44c0-1.188-0.675-2.314-1.659-3.199
	C73.401,40.183,75,38.203,75,36z"/>
</svg>
