<?xml version="1.0" encoding="utf-8"?>
<!-- Generator: Adobe Illustrator 18.1.1, SVG Export Plug-In . SVG Version: 6.00 Build 0)  -->
<svg version="1.1" id="Layer_1" xmlns="http://www.w3.org/2000/svg" xmlns:xlink="http://www.w3.org/1999/xlink" x="0px" y="0px"
	 viewBox="0 0 513 159.5" enable-background="new 0 0 513 159.5" xml:space="preserve">
<g>
	
		<text transform="matrix(1 0 0 1 304.0986 104.8115)" fill="#FFFFFF" font-family="'GothamBlack'" font-size="30">J U N K I E S</text>
	
		<text transform="matrix(1 0 0 1 14 104.8115)" fill="#FFFFFF" font-family="'GothamBlack'" font-size="30">L E A G U E</text>
	<g>
		<polyline fill="none" stroke="#FFFFFF" stroke-width="2.7521" stroke-miterlimit="10" points="288.8,66.6 205.2,150.2 
			189.2,152.7 191.7,136.7 275.3,53.1 		"/>
		
			<line fill="none" stroke="#FFFFFF" stroke-width="2.7521" stroke-linecap="round" stroke-miterlimit="10" x1="282" y1="59.9" x2="198.5" y2="143.4"/>
		
			<line fill="none" stroke="#FFFFFF" stroke-width="2.7521" stroke-linecap="round" stroke-miterlimit="10" x1="326.7" y1="27.1" x2="294.8" y2="59"/>
		
			<line fill="none" stroke="#FFFFFF" stroke-width="2.7521" stroke-linecap="round" stroke-miterlimit="10" x1="283" y1="47.1" x2="314.8" y2="15.2"/>
		
			<circle fill="none" stroke="#FFFFFF" stroke-width="2.7521" stroke-linecap="round" stroke-miterlimit="10" cx="325.6" cy="16.3" r="10.6"/>
		<g>
			
				<polygon fill="none" stroke="#FFFFFF" stroke-width="2.7521" stroke-linecap="round" stroke-linejoin="round" stroke-miterlimit="10" points="
				262.8,40.5 301.2,78.9 290.5,51.7 			"/>
			
				<polyline fill="none" stroke="#FFFFFF" stroke-width="2.7521" stroke-linecap="round" stroke-linejoin="round" stroke-miterlimit="10" points="
				300.7,78.2 304.3,65.6 297.2,58.5 			"/>
			
				<polyline fill="none" stroke="#FFFFFF" stroke-width="2.7521" stroke-linecap="round" stroke-linejoin="round" stroke-miterlimit="10" points="
				263.8,41.2 276.3,37.6 283.4,44.7 			"/>
		</g>
		<line fill="none" stroke="#FFFFFF" stroke-width="2.7521" stroke-miterlimit="10" x1="306.9" y1="21.5" x2="320.4" y2="35"/>
		<line fill="none" stroke="#FFFFFF" stroke-width="2.7521" stroke-miterlimit="10" x1="301" y1="27.3" x2="314.6" y2="40.9"/>
		<line fill="none" stroke="#FFFFFF" stroke-width="2.7521" stroke-miterlimit="10" x1="295.2" y1="33.2" x2="308.7" y2="46.7"/>
		<line fill="none" stroke="#FFFFFF" stroke-width="2.7521" stroke-miterlimit="10" x1="289.4" y1="39" x2="302.9" y2="52.6"/>
	</g>
	<g>
		<polygon fill="none" stroke="#FFFFFF" stroke-width="2.7521" stroke-miterlimit="10" points="197.4,46 194.7,47.9 177.2,43.9 
			173.2,47.9 172.9,51.9 190.8,72.7 212.6,77.5 191.9,56.1 197.1,53.8 204.3,57.5 206.7,55.3 208.8,52.9 205.1,45.8 207.4,40.6 
			228.3,61.8 224,39.5 203.3,21.5 199.2,21.8 195.2,25.8 199.2,43.3 		"/>
		<polygon fill="none" stroke="#FFFFFF" stroke-width="2.2717" stroke-miterlimit="10" points="193.1,41.5 191.6,28 180.8,17.1 
			163,11.7 168.5,29.4 179.3,40.3 193.1,41.6 		"/>
		<polyline fill="none" stroke="#FFFFFF" stroke-width="2.2717" stroke-miterlimit="10" points="180.8,17.1 178,26.7 168.5,29.4 		
			"/>
		<polyline fill="none" stroke="#FFFFFF" stroke-width="2.2717" stroke-miterlimit="10" points="163,11.7 178,26.7 193,41.6 		"/>
		<polyline fill="none" stroke="#FFFFFF" stroke-width="2.2717" stroke-miterlimit="10" points="191.6,28 188.8,37.3 179.3,40.3 		
			"/>
		<polyline fill="none" stroke="#FFFFFF" stroke-width="2.7521" stroke-miterlimit="10" points="177,44.1 183.2,55.1 191.7,56.3 
			207.6,40.4 206.4,31.8 195.4,25.6 		"/>
		<polygon fill="none" stroke="#FFFFFF" stroke-width="2.7521" stroke-miterlimit="10" points="203.9,57 208.2,52.7 212.8,51.5 
			202.9,61.4 		"/>
		<polyline fill="none" stroke="#FFFFFF" stroke-width="2.7521" stroke-miterlimit="10" points="202.8,60.1 296,153.6 304.8,144.8 
			211.6,51.4 		"/>
		<polyline fill="none" stroke="#FFFFFF" stroke-width="2.7521" stroke-miterlimit="10" points="212.8,51.5 218.4,67 202.9,61.4 		
			"/>
	</g>
</g>
</svg>
