<?xml version="1.0" encoding="utf-8"?>
<!-- Generator: Adobe Illustrator 16.0.0, SVG Export Plug-In . SVG Version: 6.00 Build 0)  -->
<!DOCTYPE svg PUBLIC "-//W3C//DTD SVG 1.1//EN" "http://www.w3.org/Graphics/SVG/1.1/DTD/svg11.dtd">
<svg version="1.1" id="Layer_1" xmlns="http://www.w3.org/2000/svg" xmlns:xlink="http://www.w3.org/1999/xlink" x="0px" y="0px"
	 width="89.546px" height="89.546px" viewBox="0 0 89.546 89.546" enable-background="new 0 0 89.546 89.546" xml:space="preserve">
<path fill="#58595B" d="M70,8H22.087c-0.552,0-1,0.447-1,1v18.32c0,17.075,9.384,32.618,24.491,40.564
	C45.724,67.962,45.883,68,46.043,68c0.16,0,0.32-0.038,0.465-0.115C61.615,59.935,71,44.392,71,27.32V9C71,8.447,70.552,8,70,8z
	 M60.598,26.122L41.685,43.774c-0.192,0.18-0.438,0.269-0.682,0.269c-0.256,0-0.512-0.098-0.707-0.293l-6.305-6.304
	c-0.39-0.391-0.39-1.023,0-1.414c0.391-0.391,1.024-0.391,1.415,0l5.621,5.62l18.207-16.993c0.403-0.375,1.037-0.354,1.414,0.05
	C61.024,25.112,61.002,25.745,60.598,26.122z"/>
</svg>
